{
    "openapi": "3.0.0",
    "info": {
        "title": "DSWD Payout API Documentation",
        "version": "1.0"
    },
    "servers": [
        {
            "url": "http://dswd-payout.test/api/v1/admin"
        }
    ],
    "paths": {
        "/capture": {
            "post": {
                "tags": [
                    "Capture"
                ],
                "summary": "Get Capture",
                "requestBody": {
                    "required": true,
                    "content": {
                        "multipart/form-data": {
                            "schema": {
                                "properties": {
                                    "id_number": {
                                        "title": "id_number",
                                        "type": "string"
                                    },
                                    "payroll_no": {
                                        "title": "payroll_no",
                                        "type": "string",
                                        "example": "2000"
                                    },
                                    "file": {
                                        "title": "file",
                                        "type": "file",
                                        "format": "binary"
                                    }
                                },
                                "type": "object"
                            }
                        }
                    }
                },
                "responses": {
                    "200": {
                        "description": "OK",
                        "content": {
                            "application/json": {
                                "schema": {},
                                "example": {
                                    "status": "success",
                                    "description": "OK",
                                    "data": {
                                        "encoded_payroll": {
                                            "payroll_count": 1,
                                            "payroll": [
                                                {
                                                    "id": 4,
                                                    "payroll_no": "2",
                                                    "path": "pictures/2_1704699662.jpg",
                                                    "is_duplicate": true,
                                                    "created_at": "2024-01-08 07:41:02"
                                                }
                                            ]
                                        }
                                    }
                                }
                            }
                        }
                    },
                    "401": {
                        "description": "Unauthorized",
                        "content": {
                            "application/json": {
                                "schema": {},
                                "example": {
                                    "status": "error",
                                    "description": "Unauthorized"
                                }
                            }
                        }
                    },
                    "422": {
                        "description": "Unprocessable Content",
                        "content": {
                            "application/json": {
                                "schema": {},
                                "example": {
                                    "message": "Payroll number required (and 1 more error)",
                                    "errors": {
                                        "payroll_no": [
                                            "Payroll number required"
                                        ],
                                        "file": [
                                            "File required"
                                        ]
                                    }
                                }
                            }
                        }
                    },
                    "404": {
                        "description": "Not Found",
                        "content": {
                            "application/json": {
                                "schema": {},
                                "example": {
                                    "status": "error",
                                    "description": "Not Found"
                                }
                            }
                        }
                    }
                },
                "security": [
                    {
                        "admin": []
                    }
                ]
            }
        },
        "/capture/{id}": {
            "delete": {
                "tags": [
                    "Capture"
                ],
                "summary": "Delete Capture by id",
                "parameters": [
                    {
                        "name": "id",
                        "in": "path",
                        "description": "id",
                        "schema": {
                            "type": "string",
                            "example": "1"
                        }
                    }
                ],
                "responses": {
                    "200": {
                        "description": "OK",
                        "content": {
                            "application/json": {
                                "schema": {},
                                "example": {
                                    "status": "success",
                                    "description": "OK"
                                }
                            }
                        }
                    },
                    "401": {
                        "description": "Unauthorized",
                        "content": {
                            "application/json": {
                                "schema": {},
                                "example": {
                                    "status": "error",
                                    "description": "Unauthorized"
                                }
                            }
                        }
                    },
                    "422": {
                        "description": "Unprocessable Content",
                        "content": {
                            "application/json": {
                                "schema": {},
                                "example": {
                                    "message": "Payroll number required (and 1 more error)",
                                    "errors": {
                                        "payroll_no": [
                                            "Payroll number required"
                                        ],
                                        "file": [
                                            "File required"
                                        ]
                                    }
                                }
                            }
                        }
                    },
                    "404": {
                        "description": "Not Found",
                        "content": {
                            "application/json": {
                                "schema": {},
                                "example": {
                                    "status": "error",
                                    "description": "Not Found"
                                }
                            }
                        }
                    }
                },
                "security": [
                    {
                        "admin": []
                    }
                ]
            }
        },
        "/import/payroll": {
            "post": {
                "tags": [
                    "Import"
                ],
                "summary": "Import payroll",
                "description": "Download template [here](/storage/downloads/CFW_template.xlsx)",
                "requestBody": {
                    "required": true,
                    "content": {
                        "multipart/form-data": {
                            "schema": {
                                "properties": {
                                    "id_number": {
                                        "title": "year",
                                        "type": "string"
                                    },
                                    "modality": {
                                        "title": "modality",
                                        "type": "string",
                                        "enum": [
                                            "CFW"
                                        ]
                                    },
                                    "year": {
                                        "title": "year",
                                        "type": "string"
                                    },
                                    "excel_file": {
                                        "title": "excel_file",
                                        "type": "string",
                                        "format": "binary"
                                    }
                                },
                                "type": "object"
                            }
                        }
                    }
                },
                "responses": {
                    "200": {
                        "description": "OK",
                        "content": {
                            "application/json": {
                                "schema": {},
                                "example": {
                                    "status": "success",
                                    "description": "OK"
                                }
                            }
                        }
                    },
                    "401": {
                        "description": "Unauthorized",
                        "content": {
                            "application/json": {
                                "schema": {},
                                "example": {
                                    "status": "error",
                                    "description": "Unauthorized"
                                }
                            }
                        }
                    },
                    "404": {
                        "description": "Not Found",
                        "content": {
                            "application/json": {
                                "schema": {},
                                "example": {
                                    "status": "error",
                                    "description": "Not Found"
                                }
                            }
                        }
                    }
                },
                "security": [
                    {
                        "admin": []
                    }
                ]
            }
        },
        "/payroll": {
            "get": {
                "tags": [
                    "Payroll"
                ],
                "summary": "Get payroll",
                "responses": {
                    "200": {
                        "description": "OK",
                        "content": {
                            "application/json": {
                                "schema": {},
                                "example": {
                                    "status": "success",
                                    "description": "OK",
                                    "data": {
                                        "current_page": 1,
                                        "data": [
                                            {
                                                "id": 101484,
                                                "payroll_no": "1",
                                                "name": "ACEVEDO, FRANCISCO MESO",
                                                "barangay": "BATUNAN",
                                                "municipality": "Tagbina",
                                                "modality": "CFW",
                                                "year": 2024,
                                                "uploaded_by": "16-11570",
                                                "created_at": "2024-02-05T08:58:59.000000Z",
                                                "updated_at": "2024-02-05T08:58:59.000000Z",
                                                "deleted_at": null
                                            }
                                        ],
                                        "first_page_url": "http://dswd-payout.test/api/v1/admin/payroll?page=1",
                                        "from": 1,
                                        "last_page": 1015,
                                        "last_page_url": "http://dswd-payout.test/api/v1/admin/payroll?page=1",
                                        "links": [
                                            {
                                                "url": null,
                                                "label": "&laquo; Previous",
                                                "active": false
                                            },
                                            {
                                                "url": "http://dswd-payout.test/api/v1/admin/payroll?page=1",
                                                "label": "1",
                                                "active": true
                                            },
                                            {
                                                "url": null,
                                                "label": "...",
                                                "active": false
                                            },
                                            {
                                                "url": "http://dswd-payout.test/api/v1/admin/payroll?page=1014",
                                                "label": "1014",
                                                "active": false
                                            },
                                            {
                                                "url": "http://dswd-payout.test/api/v1/admin/payroll?page=1015",
                                                "label": "1015",
                                                "active": false
                                            },
                                            {
                                                "url": "http://dswd-payout.test/api/v1/admin/payroll?page=2",
                                                "label": "Next &raquo;",
                                                "active": false
                                            }
                                        ],
                                        "next_page_url": "http://dswd-payout.test/api/v1/admin/payroll?page=2",
                                        "path": "http://dswd-payout.test/api/v1/admin/payroll",
                                        "per_page": 10,
                                        "prev_page_url": null,
                                        "to": 10,
                                        "total": 10143
                                    }
                                }
                            }
                        }
                    },
                    "401": {
                        "description": "Unauthorized",
                        "content": {
                            "application/json": {
                                "schema": {},
                                "example": {
                                    "status": "error",
                                    "description": "Unauthorized"
                                }
                            }
                        }
                    },
                    "404": {
                        "description": "Not Found",
                        "content": {
                            "application/json": {
                                "schema": {},
                                "example": {
                                    "status": "error",
                                    "description": "Not Found"
                                }
                            }
                        }
                    }
                },
                "security": [
                    {
                        "admin": []
                    }
                ]
            }
        },
        "/test-connection/mobile": {
            "post": {
                "tags": [
                    "Test connection"
                ],
                "summary": "Test connection mobile",
                "requestBody": {
                    "required": true,
                    "content": {
                        "multipart/form-data": {
                            "schema": {
                                "properties": {
                                    "id_number": {
                                        "title": "id_number",
                                        "type": "string"
                                    }
                                },
                                "type": "object"
                            }
                        }
                    }
                },
                "responses": {
                    "200": {
                        "description": "OK",
                        "content": {
                            "application/json": {
                                "schema": {},
                                "example": {
                                    "status": "success",
                                    "description": "OK",
                                    "data": {
                                        "connection": {
                                            "id_number": "16-11570",
                                            "status": 1,
                                            "created_at": "2024-01-08 07:46:32"
                                        },
                                        "encoded_payroll": {
                                            "payroll_count": 1,
                                            "payroll": [
                                                {
                                                    "id": 4,
                                                    "payroll_no": "2",
                                                    "path": "pictures/2_1704699662.jpg",
                                                    "is_duplicate": true,
                                                    "created_at": "2024-01-08 07:41:02"
                                                }
                                            ]
                                        }
                                    }
                                }
                            }
                        }
                    },
                    "401": {
                        "description": "Unauthorized",
                        "content": {
                            "application/json": {
                                "schema": {},
                                "example": {
                                    "status": "error",
                                    "description": "Unauthorized"
                                }
                            }
                        }
                    },
                    "404": {
                        "description": "Not Found",
                        "content": {
                            "application/json": {
                                "schema": {},
                                "example": {
                                    "status": "error",
                                    "description": "Not Found"
                                }
                            }
                        }
                    }
                },
                "security": [
                    {
                        "admin": []
                    }
                ]
            }
        },
        "/test-connection/mobile/disconnect": {
            "patch": {
                "tags": [
                    "Test connection"
                ],
                "summary": "Test connection mobile disconnect",
                "requestBody": {
                    "required": true,
                    "content": {
                        "application/x-www-form-urlencoded": {
                            "schema": {
                                "properties": {
                                    "id_number": {
                                        "title": "id_number",
                                        "type": "string"
                                    }
                                },
                                "type": "object"
                            }
                        }
                    }
                },
                "responses": {
                    "200": {
                        "description": "OK",
                        "content": {
                            "application/json": {
                                "schema": {},
                                "example": {
                                    "status": "success",
                                    "description": "OK",
                                    "data": {
                                        "id_number": "16-11570",
                                        "status": 1,
                                        "created_at": "2024-01-08 01:04:17"
                                    }
                                }
                            }
                        }
                    },
                    "401": {
                        "description": "Unauthorized",
                        "content": {
                            "application/json": {
                                "schema": {},
                                "example": {
                                    "status": "error",
                                    "description": "Unauthorized"
                                }
                            }
                        }
                    },
                    "404": {
                        "description": "Not Found",
                        "content": {
                            "application/json": {
                                "schema": {},
                                "example": {
                                    "status": "error",
                                    "description": "Not Found"
                                }
                            }
                        }
                    }
                },
                "security": [
                    {
                        "admin": []
                    }
                ]
            }
        }
    },
    "security": [
        {
            "admin": ""
        }
    ]
}